[
  {
    "Id": 1,
    "Name": "Apple",
    "Email": "hr@apple.com",
    "Date": "1976-04-01 12:50:00.000"
  },
  {
    "Id": 2,
    "Name": "Samsung",
    "Email": "hr@samsung.com",
    "Date": "1938-03-01 12:50:00.000"
  },
  {
    "Id": 3,
    "Name": "Nokia",
    "Email": "hr@Nokia.com",
    "Date": "1865-05-12 12:50:00.000"
  },
  {
    "Id": 4,
    "Name": "Xiaomi",
    "Email": "hr@Xiaomi.com",
    "Date": "2010-04-06 12:50:00.000"
  },
  {
    "Id": 5,
    "Name": "HTC",
    "Email": "hr@HTC.com",
    "Date": "1997-05-15 12:50:00.000"
  }
]